{
  "project_info": {
    "project_number": "436674102927",
    "firebase_url": "https://isoft-doctorpocket.firebaseio.com",
    "project_id": "isoft-doctorpocket",
    "storage_bucket": "isoft-doctorpocket.appspot.com"
  },
  "client": [
    {
      "client_info": {
        "mobilesdk_app_id": "1:436674102927:android:d6fcd099139af4ae",
        "android_client_info": {
          "package_name": "com.empiere.doctorpocket"
        }
      },
      "oauth_client": [
        {
          "client_id": "436674102927-fcoi54omolgk6hd8r0rvt2p2hfp5otos.apps.googleusercontent.com",
          "client_type": 3
        },
        {
          "client_id": "436674102927-e7i2bugjjln5b2ctounrrdccagvsee4o.apps.googleusercontent.com",
          "client_type": 3
        },
        {
          "client_id": "436674102927-s9j3g6avf0u1rhf4im3fnmlda1ogjge7.apps.googleusercontent.com",
          "client_type": 3
        },
        {
          "client_id": "436674102927-itbjs9jrd98o2sj2rcvcjh6ph99ts0gd.apps.googleusercontent.com",
          "client_type": 1,
          "android_info": {
            "package_name": "com.empiere.doctorpocket",
            "certificate_hash": "069390a63c03723bb732ae7e507f2870dfba88a6"
          }
        }
      ],
      "api_key": [
        {
          "current_key": "AIzaSyC-oN88-H3I7XI4j2cLkoTrpbQtVl1d994"
        }
      ],
      "services": {
        "analytics_service": {
          "status": 1
        },
        "appinvite_service": {
          "status": 1,
          "other_platform_oauth_client": []
        },
        "ads_service": {
          "status": 2
        }
      }
    },
    {
      "client_info": {
        "mobilesdk_app_id": "1:436674102927:android:af87ebb048c06b56",
        "android_client_info": {
          "package_name": "com.docpoc.nurse"
        }
      },
      "oauth_client": [
        {
          "client_id": "436674102927-gtljj2hovd34d8icudn01ldo3fu7b34f.apps.googleusercontent.com",
          "client_type": 1,
          "android_info": {
            "package_name": "com.docpoc.nurse",
            "certificate_hash": "069390a63c03723bb732ae7e507f2870dfba88a6"
          }
        },
        {
          "client_id": "436674102927-fcoi54omolgk6hd8r0rvt2p2hfp5otos.apps.googleusercontent.com",
          "client_type": 3
        },
        {
          "client_id": "436674102927-e7i2bugjjln5b2ctounrrdccagvsee4o.apps.googleusercontent.com",
          "client_type": 3
        },
        {
          "client_id": "436674102927-s9j3g6avf0u1rhf4im3fnmlda1ogjge7.apps.googleusercontent.com",
          "client_type": 3
        }
      ],
      "api_key": [
        {
          "current_key": "AIzaSyC-oN88-H3I7XI4j2cLkoTrpbQtVl1d994"
        }
      ],
      "services": {
        "analytics_service": {
          "status": 1
        },
        "appinvite_service": {
          "status": 2,
          "other_platform_oauth_client": [
            {
              "client_id": "436674102927-bmsb4a8tojspk53flr5ceraj8ah73ei3.apps.googleusercontent.com",
              "client_type": 2,
              "ios_info": {
                "bundle_id": "com.ebcraftzs.drPocket"
              }
            },
            {
              "client_id": "436674102927-fcoi54omolgk6hd8r0rvt2p2hfp5otos.apps.googleusercontent.com",
              "client_type": 3
            }
          ]
        },
        "ads_service": {
          "status": 2
        }
      }
    },
    {
      "client_info": {
        "mobilesdk_app_id": "1:436674102927:android:4404d9460d138582",
        "android_client_info": {
          "package_name": "com.docpoc.nurse"
        }
      },
      "oauth_client": [
        {
          "client_id": "436674102927-00n0piah2dufbrm7h1jfol4qjls7fjht.apps.googleusercontent.com",
          "client_type": 1,
          "android_info": {
            "package_name": "com.docpoc.nurse",
            "certificate_hash": "9a8ba940b1c83726b67316eccaf76a8d1b851c32"
          }
        },
        {
          "client_id": "436674102927-fcoi54omolgk6hd8r0rvt2p2hfp5otos.apps.googleusercontent.com",
          "client_type": 3
        },
        {
          "client_id": "436674102927-e7i2bugjjln5b2ctounrrdccagvsee4o.apps.googleusercontent.com",
          "client_type": 3
        },
        {
          "client_id": "436674102927-s9j3g6avf0u1rhf4im3fnmlda1ogjge7.apps.googleusercontent.com",
          "client_type": 3
        }
      ],
      "api_key": [
        {
          "current_key": "AIzaSyC-oN88-H3I7XI4j2cLkoTrpbQtVl1d994"
        }
      ],
      "services": {
        "analytics_service": {
          "status": 1
        },
        "appinvite_service": {
          "status": 2,
          "other_platform_oauth_client": [
            {
              "client_id": "436674102927-bmsb4a8tojspk53flr5ceraj8ah73ei3.apps.googleusercontent.com",
              "client_type": 2,
              "ios_info": {
                "bundle_id": "com.ebcraftzs.drPocket"
              }
            },
            {
              "client_id": "436674102927-fcoi54omolgk6hd8r0rvt2p2hfp5otos.apps.googleusercontent.com",
              "client_type": 3
            }
          ]
        },
        "ads_service": {
          "status": 2
        }
      }
    }
  ],
  "configuration_version": "1"
}